{
	"info": {
		"_postman_id": "f1e9b11b-582b-4f12-8e66-5ef0cc34d737",
		"name": "CRUD Birtday",
		"schema": "https://schema.getpostman.com/json/collection/v2.1.0/collection.json",
		"_exporter_id": "4738497",
		"_collection_link": "https://restless-firefly-611970.postman.co/workspace/estrada~f9977820-0db9-4111-afe0-9e3d5d6af6da/collection/4738497-f1e9b11b-582b-4f12-8e66-5ef0cc34d737?action=share&source=collection_link&creator=4738497"
	},
	"item": [
		{
			"name": "localhost:3001/api/users",
			"request": {
				"method": "POST",
				"header": [],
				"body": {
					"mode": "raw",
					"raw": "{\r\n    \"firstname\" : \"Mustofa\",\r\n    \"lastname\"  : \"Alfaraby\",\r\n    \"birthday\"  : \"1989-01-22\",\r\n    \"location\"  : \"ID\"\r\n}",
					"options": {
						"raw": {
							"language": "json"
						}
					}
				},
				"url": {
					"raw": "localhost:3001/api/users",
					"host": [
						"localhost"
					],
					"port": "3001",
					"path": [
						"api",
						"users"
					]
				}
			},
			"response": []
		},
		{
			"name": "localhost:3001/api/users",
			"protocolProfileBehavior": {
				"disableBodyPruning": true
			},
			"request": {
				"method": "GET",
				"header": [],
				"body": {
					"mode": "raw",
					"raw": "",
					"options": {
						"raw": {
							"language": "json"
						}
					}
				},
				"url": {
					"raw": "localhost:3001/api/users",
					"host": [
						"localhost"
					],
					"port": "3001",
					"path": [
						"api",
						"users"
					]
				}
			},
			"response": []
		},
		{
			"name": "localhost:3001/api/users",
			"request": {
				"method": "DELETE",
				"header": [],
				"body": {
					"mode": "raw",
					"raw": "{\r\n    \"id_user\" : \"1\"\r\n}",
					"options": {
						"raw": {
							"language": "json"
						}
					}
				},
				"url": {
					"raw": "localhost:3001/api/users",
					"host": [
						"localhost"
					],
					"port": "3001",
					"path": [
						"api",
						"users"
					]
				}
			},
			"response": []
		},
		{
			"name": "localhost:3001/api/message",
			"request": {
				"method": "POST",
				"header": [],
				"body": {
					"mode": "raw",
					"raw": "{\r\n    \"email\" : \"mustofaalfaraby@gmail.com\",\r\n    \"id_user\" :  2\r\n}",
					"options": {
						"raw": {
							"language": "json"
						}
					}
				},
				"url": {
					"raw": "localhost:3001/api/message",
					"host": [
						"localhost"
					],
					"port": "3001",
					"path": [
						"api",
						"message"
					]
				}
			},
			"response": []
		}
	]
}